156
6
363.438 112.394 22.0446 46.3441 0.960706
6.20929 72.1774 32.9328 50.0754 0.954823
149.313 75.4482 30.0762 36.7236 0.840435
14.1684 140.328 35.0665 52.4363 0.769864
331.8 30.2075 27.1346 37.1221 0.713008
52.4963 18.6968 87.992 164.508 0.622948
