285
5
98.5818 86.0346 25.2619 36.5703 0.924506
19.8601 106.83 26.2628 39.8401 0.920019
413.403 132.26 32.7976 43.6542 0.879634
80.1057 147.634 28.9539 38.2868 0.843482
339.421 57.9264 23.721 32.8502 0.644757
