294
6
322.323 115.299 14.8758 32.2876 0.994984
413.438 131.716 31.8236 45.0178 0.944965
20.5542 108.913 27.3098 40.2806 0.921526
347.064 54.3212 23.4312 32.6915 0.886228
92.146 147.741 28.8151 41.6124 0.74981
101.391 90.8654 22.8546 35.3549 0.636099
