309
6
320.691 115.97 22.9425 35.8994 0.949886
354.197 113.735 27.9393 35.7399 0.929009
108.52 144.681 24.8174 37.6406 0.859161
101.179 93.634 21.6494 34.9137 0.778713
333.164 59.5288 23.4842 33.6118 0.696873
409.902 131.939 31.6256 41.2919 0.684148
